20

1

10
20

10
20
30

10
20
30
-1

10
20
30
-1
-2

10
20
30
-2
-1

10
20
30
-1
-2
-1

10
12
14
16
-1
-3
-2
-1

61
50

10
-1
10
-1
10
-1
10
-1

10
20
30
-2
20

124

1
2
-1
3
4
-1
5
6
-1
7
8
-1
9
10
-1

4
4
4
4
4
4
-1
-2
-3
-1
-1
-1

1
2
4
8
16

4
4
4
4
4
4
4
4
4
4
4
4
4
4
4
4
4
4
4
4
4
4
4
4
4

1
1
1
1
1
1
1
1
-1
-2
-3
-4
-1
-1
-1
-1
2
2
2
2
-4
-3
-2
-1
4
4
-1
-1
8

1
3
7
-1
11
13
-3
-2
8
-1

3
3
6
5
3
2
8
4
5
1
-5
-3
-1
-1
-1
9
2
2
2
5
10
7
2
8
2

2
4
6
7
6
8
4
9
2
9
10
6
4
4
8
9
7
-1
-2
-3
-4
-5
-6
-7
-8
-1
-3
-5
